{
    "GemFormatVersion": 4,
    "Uuid": "823d91c57a4c476aa222180b81a19f46",
    "Name": "TDBaseEnemy",
    "DisplayName": "TDBaseEnemy",
    "Version": "0.1.0",
    "Summary": "Base enemy class for tower defence demo",
    "Tags": ["Untagged"],
    "IconPath": "preview.png",
    "Modules": [
        {
            "Type": "GameModule"
        }
    ]
}
