{
    "GemFormatVersion": 4,
    "Uuid": "eff10773d90e4ff2b71f7c10f4fdf936",
    "Name": "AsyncSpawner",
    "DisplayName": "AsyncSpawner",
    "Version": "0.1.0",
    "Summary": "A short description of my Gem.",
    "Tags": ["Untagged"],
    "IconPath": "preview.png",
    "Modules": [
        {
            "Type": "GameModule"
        }
    ]
}
