{
    "GemFormatVersion": 4,
    "Uuid": "e2e3ddc8e64946bb93747f40bedeb633",
    "Name": "TDBaseProjectile",
    "DisplayName": "TDBaseProjectile",
    "Version": "0.1.0",
    "Summary": "A short description of my Gem.",
    "Tags": ["Untagged"],
    "IconPath": "preview.png",
    "Modules": [
        {
            "Type": "GameModule"
        }
    ]
}
