{
    "GemFormatVersion": 4,
    "Uuid": "18195a909ac04fffb3ffaa4a4afff621",
    "Name": "Projector",
    "DisplayName": "Projector",
    "Version": "0.1.0",
    "Summary": "Adds camera unprojection as a Gem",
    "Tags": ["Untagged"],
    "IconPath": "preview.png",
    "Modules": [
        {
            "Type": "GameModule"
        }
    ]
}
