{
    "GemFormatVersion": 4,
    "Uuid": "3e2e046f0f8e48f5bf66f8f03c0ee621",
    "Name": "BaseTDMinion",
    "DisplayName": "BaseTDMinion",
    "Version": "0.1.0",
    "Summary": "A short description of my Gem.",
    "Tags": ["Untagged"],
    "IconPath": "preview.png",
    "Modules": [
        {
            "Type": "GameModule"
        }
    ]
}
