{
    "GemFormatVersion": 4,
    "Uuid": "b9c9e8953be3460d9a1aeca426435b4b",
    "Name": "BaseCharacterControls",
    "DisplayName": "BaseCharacterControls",
    "Version": "0.1.0",
    "Summary": "Implements basic movement controls for a mesh",
    "Tags": ["Untagged"],
    "IconPath": "preview.png",
    "Modules": [
        {
            "Type": "GameModule"
        }
    ]
}
